<?xml version="1.0" encoding="UTF-8" standalone="no"?>
<!-- Created with Inkscape (http://www.inkscape.org/) -->

<svg
   xmlns:dc="http://purl.org/dc/elements/1.1/"
   xmlns:cc="http://creativecommons.org/ns#"
   xmlns:rdf="http://www.w3.org/1999/02/22-rdf-syntax-ns#"
   xmlns:svg="http://www.w3.org/2000/svg"
   xmlns="http://www.w3.org/2000/svg"
   xmlns:sodipodi="http://sodipodi.sourceforge.net/DTD/sodipodi-0.dtd"
   xmlns:inkscape="http://www.inkscape.org/namespaces/inkscape"
   width="24"
   height="24"
   viewBox="0 0 24 24"
   id="svg7930"
   version="1.1"
   inkscape:version="0.91 r13725"
   sodipodi:docname="reddit.svg">
  <defs
     id="defs7932" />
  <sodipodi:namedview
     id="base"
     pagecolor="#ffffff"
     bordercolor="#666666"
     borderopacity="1.0"
     inkscape:pageopacity="0.0"
     inkscape:pageshadow="2"
     inkscape:zoom="20.661047"
     inkscape:cx="18.415486"
     inkscape:cy="12.571898"
     inkscape:document-units="px"
     inkscape:current-layer="layer1"
     showgrid="false"
     showguides="true"
     inkscape:guide-bbox="true"
     units="px"
     fit-margin-top="0"
     fit-margin-left="0"
     fit-margin-right="0"
     fit-margin-bottom="0" />
  <metadata
     id="metadata7935">
    <rdf:RDF>
      <cc:Work
         rdf:about="">
        <dc:format>image/svg+xml</dc:format>
        <dc:type
           rdf:resource="http://purl.org/dc/dcmitype/StillImage" />
        <dc:title></dc:title>
      </cc:Work>
    </rdf:RDF>
  </metadata>
  <g
     inkscape:label="Layer 1"
     inkscape:groupmode="layer"
     id="layer1"
     transform="translate(-114.87675,-184.16237)">
    <g
       id="g8912"
       transform="matrix(0.024,0,0,0.024,114.87675,184.16237)">
      <path
         id="path8914"
         d="m 500,1000 0,0 C 223.9,1000 0,776.1 0,500 l 0,0 C 0,223.9 223.9,0 500,0 l 0,0 c 276.1,0 500,223.9 500,500 l 0,0 c 0,276.1 -223.9,500 -500,500 z"
         class="st0"
         inkscape:connector-curvature="0"
         style="fill:#ff4500" />
      <path
         id="Fill-3"
         d="m 614.6,604.2 c -28.7,0 -52.1,-23.4 -52.1,-52.1 0,-28.7 23.4,-52.1 52.1,-52.1 28.7,0 52.1,23.4 52.1,52.1 0,28.7 -23.4,52.1 -52.1,52.1 m 9.2,85.5 C 588.2,725.2 520.1,728 500.1,728 c -20,0 -88.2,-2.8 -123.7,-38.3 -5.3,-5.3 -5.3,-13.8 0,-19.1 5.3,-5.3 13.8,-5.3 19.1,0 22.4,22.4 70.3,30.4 104.6,30.4 34.2,0 82.2,-8 104.6,-30.4 5.3,-5.3 13.8,-5.3 19.1,0 5.2,5.3 5.2,13.8 0,19.1 M 333.3,552.1 c 0,-28.7 23.4,-52.1 52.1,-52.1 28.7,0 52.1,23.4 52.1,52.1 0,28.7 -23.4,52.1 -52.1,52.1 -28.7,0 -52.1,-23.4 -52.1,-52.1 m 500,-52.1 c 0,-40.3 -32.6,-72.9 -72.9,-72.9 -19.7,0 -37.5,7.8 -50.6,20.5 -49.8,-36 -118.5,-59.2 -195,-61.9 L 548,229.4 656.5,252.5 c 1.3,27.6 23.9,49.6 51.8,49.6 28.8,0 52.1,-23.3 52.1,-52.1 0,-28.8 -23.3,-52.1 -52.1,-52.1 -20.5,0 -38,11.9 -46.5,29.1 L 540.6,201.2 c -3.4,-0.7 -6.9,-0.1 -9.8,1.8 -2.9,1.9 -4.9,4.8 -5.6,8.2 l -36.4,171.5 c -0.2,1 0,1.9 0,2.9 -77.9,2 -147.9,25.3 -198.5,61.8 -13.1,-12.6 -30.8,-20.3 -50.4,-20.3 -40.3,0 -72.9,32.7 -72.9,72.9 0,29.6 17.7,55.1 43.1,66.5 -1.1,7.2 -1.7,14.6 -1.7,22.1 0,112.2 130.6,203.1 291.7,203.1 161.1,0 291.7,-90.9 291.7,-203.1 0,-7.4 -0.6,-14.7 -1.7,-21.9 25.3,-11.4 43.2,-36.9 43.2,-66.7"
         class="st1"
         inkscape:connector-curvature="0"
         style="fill:#ffffff" />
    </g>
  </g>
  <style
     id="style8908"
     type="text/css">
	.st0{fill:#FF4500;}
	.st1{fill:#FFFFFF;}
</style>
</svg>
