<?xml version="1.0" encoding="UTF-8" standalone="no"?>
<svg
   xmlns:dc="http://purl.org/dc/elements/1.1/"
   xmlns:cc="http://creativecommons.org/ns#"
   xmlns:rdf="http://www.w3.org/1999/02/22-rdf-syntax-ns#"
   xmlns:svg="http://www.w3.org/2000/svg"
   xmlns="http://www.w3.org/2000/svg"
   xmlns:sodipodi="http://sodipodi.sourceforge.net/DTD/sodipodi-0.dtd"
   xmlns:inkscape="http://www.inkscape.org/namespaces/inkscape"
   width="109"
   height="24"
   id="svg2"
   version="1.1"
   inkscape:version="0.91 r13725"
   sodipodi:docname="logotype.svg">
  <metadata
     id="metadata12">
    <rdf:RDF>
      <cc:Work
         rdf:about="">
        <dc:format>image/svg+xml</dc:format>
        <dc:type
           rdf:resource="http://purl.org/dc/dcmitype/StillImage" />
        <dc:title></dc:title>
      </cc:Work>
    </rdf:RDF>
  </metadata>
  <defs
     id="defs10" />
  <sodipodi:namedview
     pagecolor="#ffffff"
     bordercolor="#666666"
     borderopacity="1"
     objecttolerance="10"
     gridtolerance="10"
     guidetolerance="10"
     inkscape:pageopacity="0"
     inkscape:pageshadow="2"
     inkscape:window-width="640"
     inkscape:window-height="480"
     id="namedview8"
     showgrid="false"
     inkscape:zoom="8.1211459"
     inkscape:cx="60.554538"
     inkscape:cy="21.3758"
     inkscape:current-layer="svg2" />
  <g
     id="g3370"
     transform="matrix(0.96576867,0,0,0.96576867,135.74708,1.5060394)">
    <path
       id="path8141-2"
       d="m -43.771484,-0.70898438 0,0.0273438 -1.955078,0.359375 0,19.36132758 c 0,0.753102 0.0825,1.386687 0.25,1.910157 l 0.002,0.0059 0.002,0.0039 c 0.18742,0.499786 0.449592,0.924221 0.789062,1.263672 l 0.0039,0.0039 0.0039,0.002 c 0.359205,0.316951 0.791375,0.548952 1.291015,0.695312 0.519084,0.166051 1.115804,0.258889 1.789063,0.279297 l 0.150391,0.0059 0.324218,-1.941406 -0.171875,-0.02734 c -0.395256,-0.05929 -0.740773,-0.129078 -1.033203,-0.207031 -0.256939,-0.07385 -0.459975,-0.1834 -0.617187,-0.322265 -0.156736,-0.158197 -0.28332,-0.361413 -0.375,-0.615235 -0.07301,-0.276817 -0.111327,-0.648919 -0.111329,-1.117187 l 0,-19.51562534 -0.142578,0.14453126 -0.02734,-0.31640626 -0.171875,0 z M -87.822266,6.7070312 c -1.062721,1.8e-5 -2.039135,0.2037574 -2.923828,0.6152344 -0.881925,0.390129 -1.653349,0.9562404 -2.308594,1.6933594 -0.636509,0.718664 -1.137335,1.59111 -1.503906,2.609375 l 0,0.002 c -0.347119,1.02095 -0.519531,2.14994 -0.519531,3.386719 0,1.23679 0.1723,2.367599 0.519531,3.388672 l 0,0.002 0,0.002 c 0.366612,1.01838 0.867575,1.887023 1.503906,2.605469 l 0.002,0 0,0.002 c 0.655315,0.716732 1.425968,1.281792 2.30664,1.691406 l 0.002,0.002 c 0.884116,0.39066 1.860267,0.583985 2.921875,0.583985 1.061625,0 2.039564,-0.193259 2.923828,-0.583985 l 0.002,0 0.002,-0.002 c 0.780684,-0.363108 1.460408,-0.855703 2.048828,-1.460937 0.669645,0.362656 1.322751,0.762076 2.341797,1.158203 0.263331,0.131588 0.744366,0.299279 1.464844,0.519531 0.751306,0.250447 1.806571,0.369141 3.177734,0.369141 1.84404,0 3.309355,-0.362151 4.388672,-1.109375 0.167621,-0.113855 0.318385,-0.239918 0.460937,-0.371094 0.375497,0.1956 0.788037,0.394 1.296875,0.591797 0.263332,0.131588 0.744367,0.299279 1.464844,0.519531 0.751307,0.250447 1.804618,0.369141 3.175781,0.369141 1.84404,0 3.311308,-0.362151 4.390625,-1.109375 1.09899,-0.746475 1.659412,-1.870846 1.664063,-3.306641 0.286443,0.765297 0.681094,1.450038 1.193359,2.044922 0.638602,0.741594 1.451027,1.319119 2.433594,1.728516 0.987449,0.411449 2.17296,0.613281 3.550781,0.613281 1.052715,0 1.967196,-0.10996 2.748047,-0.335938 0.785783,-0.221643 1.318241,-0.408416 1.628906,-0.585937 l 0.109375,-0.0625 -0.429687,-2.021485 -0.199219,0.09961 c -0.263391,0.131751 -0.713239,0.301028 -1.330078,0.5 -0.593625,0.191496 -1.416908,0.292967 -2.466797,0.292969 -1.891113,0 -3.235882,-0.498679 -4.076172,-1.472657 -0.817102,-0.947084 -1.256787,-2.320716 -1.341797,-4.097656 l 10.851563,0 0.02148,-0.148437 c 0.02043,-0.142647 0.02839,-0.295932 0.0293,-0.455079 l 0.002,-0.02148 c 0.01918,-0.159676 0.0293,-0.318364 0.0293,-0.478516 0,-2.606518 -0.575657,-4.5630889 -1.755859,-5.8476559 -1.153171,-1.276726 -2.721257,-1.9199219 -4.660157,-1.9199219 -0.883157,0 -1.749436,0.1731214 -2.589843,0.5214844 -0.824302,0.329991 -1.565374,0.8466688 -2.220704,1.5429688 l -0.002,0.00195 c -0.636955,0.698595 -1.157891,1.5687206 -1.564453,2.6054686 l 0,0.002 c -0.389493,1.024961 -0.580078,2.226547 -0.580078,3.603516 0,0.633662 0.04184,1.240229 0.121094,1.824219 -0.258626,-0.454283 -0.577854,-0.853481 -0.972656,-1.173828 -0.432801,-0.370987 -0.93608,-0.679984 -1.507813,-0.925782 l -0.0059,-0.0039 c -0.5414,-0.260466 -1.112542,-0.509795 -1.712891,-0.75 l -0.0039,0 c -0.577377,-0.238935 -1.093035,-0.461177 -1.550781,-0.660156 l -0.0039,0 c -0.427671,-0.194569 -0.794053,-0.394996 -1.101562,-0.605469 l -0.0039,-0.0039 c -0.282615,-0.226857 -0.497125,-0.477502 -0.644532,-0.753906 -0.144455,-0.270897 -0.220703,-0.603414 -0.220703,-1.001953 0,-0.395812 0.08514,-0.711592 0.244141,-0.958985 l 0.0039,-0.00195 c 0.166244,-0.2771594 0.382996,-0.4938607 0.660156,-0.6601562 l 0.0039,-0.00391 0.0039,-0.00391 c 0.281208,-0.1874664 0.599935,-0.3185289 0.960937,-0.3945312 l 0.0039,0 0.0039,0 c 0.385947,-0.096418 0.791422,-0.1445313 1.21875,-0.1445312 1.090486,0 1.906674,0.098956 2.433594,0.2871093 l 0.002,0 0,0.00391 c 0.577343,0.1990812 0.986121,0.356325 1.210937,0.46875 l 0.189453,0.097656 0.53711,-2.0800781 -0.125,-0.064453 C -60.199604,7.3220902 -60.692835,7.1638493 -61.398438,6.9824219 -62.099816,6.7967601 -62.98121,6.7071494 -64.050781,6.7070312 l -0.002,0 c -1.687224,3.195e-4 -3.04116,0.3962284 -4.039063,1.2070313 l -0.0039,0.00391 c -0.975676,0.809604 -1.470703,1.8897071 -1.470703,3.1933595 0,0.68131 0.123106,1.27153 0.378906,1.761719 0.250241,0.479654 0.58545,0.895963 1.001953,1.25 l 0,0.0039 0.002,0 c 0.410927,0.328748 0.882256,0.625698 1.41211,0.890625 l 0.002,0 0.0039,0.0039 c 0.522683,0.241269 1.073864,0.481663 1.65625,0.722657 l 0,-0.002 c 0.71931,0.299703 1.317224,0.560365 1.794922,0.779296 l 0.0039,0 c 0.490926,0.216032 0.878225,0.440854 1.162109,0.667969 0.281723,0.225364 0.47244,0.47112 0.580079,0.740235 l 0,0.0078 0.0039,0.002 c 0.127128,0.272425 0.193359,0.608498 0.193359,1.009766 0,0.831392 -0.326918,1.378605 -1.017578,1.734375 -0.688738,0.34436 -1.583051,0.523437 -2.685547,0.523437 -0.613113,0 -1.152523,-0.03896 -1.621093,-0.117187 -0.451537,-0.07858 -0.841634,-0.16506 -1.171876,-0.261719 l -0.01172,-0.0039 c -0.327187,-0.115633 -0.586203,-0.210147 -0.779297,-0.28711 l -0.01367,-0.0078 c -0.465543,-0.180974 -0.862724,-0.362268 -1.261719,-0.570313 0.0821,-0.343913 0.126953,-0.710168 0.126953,-1.101562 0,-0.759387 -0.133288,-1.39775 -0.410156,-1.910156 l 0,-0.002 c -0.269388,-0.51733 -0.624057,-0.956373 -1.060547,-1.310546 -0.432801,-0.370987 -0.938032,-0.679984 -1.509765,-0.925782 l -0.0059,-0.0039 c -0.5414,-0.260466 -1.112541,-0.509795 -1.71289,-0.75 l -0.002,0 c -0.577377,-0.238935 -1.094989,-0.461177 -1.552735,-0.660156 l -0.0039,0 c -0.427671,-0.194569 -0.794054,-0.394996 -1.101563,-0.605469 l -0.0039,-0.0039 c -0.282615,-0.226857 -0.495171,-0.477502 -0.642578,-0.753906 -0.144455,-0.270897 -0.220703,-0.603414 -0.220703,-1.001953 0,-0.395812 0.08514,-0.711592 0.244141,-0.9589852 l 0.0039,-0.00195 c 0.16629,-0.2771262 0.383042,-0.4938275 0.660202,-0.660123 l 0.002,-0.00391 0.0039,-0.00391 c 0.281208,-0.1874664 0.599936,-0.3185289 0.960938,-0.3945312 l 0.0039,0 0.0039,0 c 0.385947,-0.096418 0.791422,-0.1445313 1.21875,-0.1445312 1.090486,0 1.906674,0.098956 2.433594,0.2871093 l 0.0039,0 0,0.00391 c 0.577343,0.1990812 0.984169,0.356325 1.208985,0.46875 l 0.191406,0.097656 0.535156,-2.0800781 -0.123047,-0.064453 c -0.305073,-0.1525192 -0.798303,-0.3107601 -1.503906,-0.4921875 -0.701845,-0.1857852 -1.583764,-0.2753907 -2.654297,-0.2753907 -1.688176,0 -3.042709,0.3959005 -4.041015,1.2070313 l -0.0039,0.00391 c -0.975676,0.809604 -1.470703,1.8897071 -1.470703,3.1933593 0,0.68131 0.123107,1.27153 0.378907,1.761719 0.250241,0.479654 0.58545,0.895963 1.001953,1.25 l 0,0.0039 0.0039,0 c 0.410927,0.328748 0.880302,0.625698 1.410156,0.890625 l 0.0039,0 0.002,0.0039 c 0.522684,0.241269 1.073865,0.481663 1.65625,0.722657 l 0,-0.002 c 0.71931,0.299703 1.319177,0.560365 1.796876,0.779296 l 0.002,0 c 0.490926,0.216032 0.880177,0.440854 1.164062,0.667969 0.281723,0.225364 0.470486,0.47112 0.578125,0.740235 l 0,0.0078 0.0039,0.002 c 0.127128,0.272425 0.195313,0.608498 0.195313,1.009766 0,0.831392 -0.328871,1.378605 -1.019531,1.734375 -0.688738,0.34436 -1.581098,0.523437 -2.683594,0.523437 -0.613113,0 -1.154476,-0.03896 -1.623047,-0.117187 -0.451536,-0.07858 -0.841634,-0.16506 -1.171875,-0.261719 l -0.0098,-0.0039 c -0.327187,-0.115633 -0.588156,-0.210147 -0.78125,-0.28711 l -0.01367,-0.0078 c -0.782551,-0.304206 -1.351446,-0.560038 -2.109374,-1.060547 0.171138,-0.337203 0.328427,-0.688149 0.457031,-1.066406 0.367034,-1.020939 0.548828,-2.152314 0.548828,-3.388672 0,-1.237034 -0.181421,-2.365449 -0.548828,-3.386719 l 0,-0.002 c -0.346547,-1.018609 -0.847313,-1.8906351 -1.503907,-2.6093751 -0.634971,-0.736753 -1.396458,-1.3034244 -2.277343,-1.6933594 -0.884845,-0.411548 -1.864993,-0.6152343 -2.927735,-0.6152344 z m 52.869141,0 c -1.061236,1.8e-5 -2.038189,0.2029713 -2.921875,0.6132813 -0.882996,0.390165 -1.654694,0.9574885 -2.310547,1.6953125 -0.636526,0.718665 -1.137334,1.59111 -1.503906,2.609375 l 0,0.002 -0.002,0 c -0.347119,1.02095 -0.517578,2.14994 -0.517578,3.386719 0,1.23679 0.170346,2.367599 0.517578,3.388672 l 0.002,0.002 0,0.002 c 0.366613,1.01838 0.867558,1.887023 1.503906,2.605469 l 0.002,0.002 c 0.6553,0.716733 1.423998,1.281792 2.304688,1.691406 l 0.002,0.002 0.002,0 c 0.8841,0.39066 1.86025,0.583985 2.921875,0.583985 1.061607,0 2.039562,-0.193259 2.923828,-0.583985 l 0.002,0 0,-0.002 c 0.88114,-0.409832 1.641547,-0.975538 2.277344,-1.693359 0.656141,-0.718016 1.157242,-1.58759 1.503906,-2.605469 0.367863,-1.021836 0.550781,-2.15483 0.550782,-3.392578 -1.9e-5,-1.237727 -0.18296,-2.366949 -0.550782,-3.388672 -0.34634,-1.017613 -0.846117,-1.8891459 -1.501953,-2.6074219 -0.635693,-0.738217 -1.396946,-1.3049825 -2.279297,-1.6953125 -0.884845,-0.411548 -1.863057,-0.6152344 -2.925781,-0.6152344 z m -62.042969,0.060547 0,0.019531 c -1.186039,0.01191 -2.232518,0.111014 -3.085936,0.34375 -0.88562,0.221487 -1.58165,0.445704 -2.0957,0.671875 l -0.10157,0.044922 0,15.0839848 2.294925,0 0,-13.6464848 c 0.15027,-0.06467 0.410056,-0.1527756 0.855469,-0.2597656 0.500064,-0.115397 1.173024,-0.1738281 2.005859,-0.1738281 0.793867,0 1.423538,0.048499 1.884766,0.1445313 l 0.0039,0 0.0039,0.00195 c 0.494214,0.07913 0.826365,0.1661625 0.94336,0.2246093 l 0.195312,0.097656 0.46875,-2.03125 -0.128906,-0.058594 c -0.25277,-0.114824 -0.654258,-0.2095039 -1.240235,-0.3105469 -0.571466,-0.101989 -1.182468,-0.1523438 -1.832031,-0.1523438 l -0.171875,0 z m 44.34375,2.0253907 c 1.282099,0 2.241113,0.4244382 2.929688,1.2851561 0.661412,0.826766 1.01191,2.003382 1.076172,3.503906 l -8.482422,0 c 0.05058,-0.59445 0.150677,-1.173078 0.34375,-1.71875 l 0.002,-0.002 c 4.22e-4,-0.0012 -4.23e-4,-0.0027 0,-0.0039 0.233549,-0.601525 0.540631,-1.119596 0.925781,-1.5625 0.406731,-0.4648551 0.868943,-0.8316845 1.388672,-1.1015625 0.534528,-0.267256 1.1385,-0.4003906 1.816406,-0.4003906 z m -35.169922,0.029297 c 1.49831,0 2.657824,0.5486356 3.529297,1.6718751 l 0.002,0.002 c 0.871334,1.103689 1.3125,2.602564 1.3125,4.517578 0,1.915032 -0.441166,3.413889 -1.3125,4.517578 -0.871129,1.103448 -2.032436,1.648438 -3.53125,1.648438 -1.498795,0 -2.656085,-0.544828 -3.527343,-1.648438 -0.871332,-1.103671 -1.314456,-2.602546 -1.314453,-4.517578 0,-1.915014 0.44312,-3.413889 1.314453,-4.517578 l 0,-0.002 c 0.8716,-1.1234015 2.029052,-1.6718751 3.527343,-1.6718751 z m 52.869141,0 c 1.498291,0 2.657822,0.5486356 3.529297,1.6718751 l 0,0.002 c 0.871333,1.103689 1.314453,2.602564 1.314453,4.517578 0,1.915032 -0.443122,3.413907 -1.314453,4.517578 -0.87113,1.103448 -2.030502,1.648438 -3.529297,1.648438 -1.498814,0 -2.65804,-0.544828 -3.529297,-1.648438 -0.871332,-1.103671 -1.3125,-2.602546 -1.3125,-4.517578 0,-1.915014 0.441166,-3.413889 1.3125,-4.517578 l 0.002,0 0,-0.002 c 0.8716,-1.1234015 2.029034,-1.6718751 3.527344,-1.6718751 z"
       style="font-style:normal;font-variant:normal;font-weight:300;font-stretch:normal;font-size:medium;line-height:125%;font-family:Ubuntu;-inkscape-font-specification:'Ubuntu Light';letter-spacing:-1.5px;word-spacing:0px;fill:#6b6b6b;fill-opacity:1;stroke:none;stroke-width:1px;stroke-linecap:butt;stroke-linejoin:miter;stroke-opacity:1"
       inkscape:connector-curvature="0" />
    <path
       id="path8145-3"
       d="m -140.55859,2.1601562 0,3.1464844 17.98632,0 0,17.9824214 3.14649,0 0,-21.1289058 -21.13281,0 z m 0,7.7421876 0,3.1503902 10.24023,0 0,10.236328 3.14844,0 0,-10.236328 0,-3.1503902 -3.14844,0 -10.24023,0 z m 0,7.7714842 0,5.615234 5.61914,0 0,-5.615234 -5.61914,0 z"
       style="color:#000000;display:inline;overflow:visible;visibility:visible;fill:#ffa000;fill-opacity:1;fill-rule:nonzero;stroke:none;stroke-width:1;marker:none;enable-background:accumulate"
       inkscape:connector-curvature="0" />
  </g>
</svg>
